{
  "development": {
    "username": "admin",
    "password": "admin",
    "database": "black_pen",
    "host": "localhost",
    "dialect": "mysql",
    "operatorsAliases": false
  },
  "test": {
    "username": "",
    "password": null,
    "database": "",
    "host": "127.0.0.1",
    "dialect": "",
    "operatorsAliases": false
  },
  "production": {
    "username": "admin",
    "password": "admin",
    "database": "avidAdviceBackOffice",
    "host": "localhost",
    "dialect": "mysql",
    "operatorsAliases": false
  }
}