[
  {
    "title" : "menue 1",
    "link" : "http://avidadvice.com/jhsjdf/sdfsdf.html"
  },
  {
    "title" : "menue 2",
    "link" : "http://google.com/jhsjdf/sdfsdf.html"
  },
  {
    "title" : "menue 3",
    "link" : "http://avidadvice.com/jhsjdf/sdfsdf.html"
  },
  {
    "title" : "menue 4",
    "link" : "http://avidadvice.com/jhsjdf/sdfsdf.html"
  },
  {
    "title" : "menue 13",
    "items" :
    [
      {
        "title" : "menue 11",
        "link" : "http://avidadvice.com/jhsjdf/sdfsdf.html"
      },
      {
        "title" : "menue 12",
        "link" : "http://avidadvice.com/jhsjdf/sdfsdf.html"
      }
    ]
  }
]
